hEl00
W0w!
YE5
n0p3
WrOnG
R1Ght
l0ok
9uEen
cRAZy
#Tw33t
@me!
TRU3!
SurE?
kB24
n0?!
"wow"
n0T
P0p
p0OL
Pant5
5t0p
dr0P
r0lL
h1Gh
:)
:P
:'(
FuN!
g0od
>.<
(*_*)
WhY?
WH0!
hI!!
>.>
mE&U
u&me
1oo%
8+3=4
7-9=0
2x2=?
[[]]
(())
([])
a-Z
o-9
t0M!
l05t
wr0nG
</3